Tidy Tuesday
…
## $mobile
## # A tibble: 6,277 x 7
##    entity      code   year total_pop gdp_per_cap mobile_subs continent
##    <chr>       <chr> <dbl>     <dbl>       <dbl>       <dbl> <chr>    
##  1 Afghanistan AFG    1990  13032161          NA           0 Asia     
##  2 Afghanistan AFG    1991  14069854          NA           0 Asia     
##  3 Afghanistan AFG    1992  15472076          NA           0 Asia     
##  4 Afghanistan AFG    1993  17053213          NA           0 Asia     
##  5 Afghanistan AFG    1994  18553819          NA           0 Asia     
##  6 Afghanistan AFG    1995  19789880          NA           0 Asia     
##  7 Afghanistan AFG    1996  20684982          NA           0 Asia     
##  8 Afghanistan AFG    1997  21299350          NA           0 Asia     
##  9 Afghanistan AFG    1998  21752257          NA           0 Asia     
## 10 Afghanistan AFG    1999  22227543          NA           0 Asia     
## #  with 6,267 more rows
## 
## $landline
## # A tibble: 6,974 x 7
##    entity      code   year total_pop gdp_per_cap landline_subs continent
##    <chr>       <chr> <dbl>     <dbl>       <dbl>         <dbl> <chr>    
##  1 Afghanistan AFG    1990  12412000          NA         0.296 Asia     
##  2 Afghanistan AFG    1991  13299000          NA         0.285 Asia     
##  3 Afghanistan AFG    1992  14486000          NA         0.207 Asia     
##  4 Afghanistan AFG    1993  15817000          NA         0.192 Asia     
##  5 Afghanistan AFG    1994  17076000          NA         0.179 Asia     
##  6 Afghanistan AFG    1995  18111000          NA         0.170 Asia     
##  7 Afghanistan AFG    1996  18853000          NA         0.163 Asia     
##  8 Afghanistan AFG    1997  19357000          NA         0.158 Asia     
##  9 Afghanistan AFG    1998  19738000          NA         0.154 Asia     
## 10 Afghanistan AFG    1999  20171000          NA         0.149 Asia     
## #  with 6,964 more rows
…
